{
  "name": "level 3",
  "jewels": 4,
  "quest": {
    "turns": 25,
    "blocks": [
      {
        "type": "1",
        "count": 10
      },
      {
        "type": "2",
        "count": 10
      },
      {
        "type": "3",
        "count": 10
      }
    ]
  },
  "grid": [
    ["1","2","1","2","1"],
    ["2","1","x","1","2"],
    ["1","x","1","x","1"],
    ["2","x","x","1","2"],
    ["1","x","x","x","4"],
    ["x","1","x","2","4"],
    ["1","2","1","4","1"]
  ]
}